Data Science for Economists
…
PS — A convenient way to combine the package installation and loading steps is with the [pacman package's](https://github.com/trinker/pacman) `p_load()` function. If you run `pacman::p_load(ggplot, gapminder)` it will first look to see whether it needs to install either package before loading them. Clever.
- We'll get to this next week, but if you want to run a function from an (installed) package without loading it, you can use the `PACKAGE::package_function()` syntax.

---

# Brief aside: The gapminder dataset

Because we're going to be plotting the [gapminder](https://github.com/jennybc/gapminder) dataset, it is helpful to know that it contains panel data on life expectancy, population size, and GDP per capita for 142 countries since the 1950s.

```r
gapminder
```

```
## # A tibble: 1,704 × 6
##    country     continent  year lifeExp      pop gdpPercap
##    <fct>       <fct>     <int>   <dbl>    <int>     <dbl>
##  1 Afghanistan Asia       1952    28.8  8425333      779.
##  2 Afghanistan Asia       1957    30.3  9240934      821.
##  3 Afghanistan Asia       1962    32.0 10267083      853.
##  4 Afghanistan Asia       1967    34.0 11537966      836.
##  5 Afghanistan Asia       1972    36.1 13079460      740.
##  6 Afghanistan Asia       1977    38.4 14880372      786.
##  7 Afghanistan Asia       1982    39.9 12881816      978.
##  8 Afghanistan Asia       1987    40.8 13867957      852.
##  9 Afghanistan Asia       1992    41.7 16317921      649.
## 10 Afghanistan Asia       1997    41.8 22227415      635.
## # … with 1,694 more rows
```
…
